<?xml version="1.0" encoding="UTF-8"?>
<svg width="295px" height="139px" viewBox="0 0 295 139" version="1.1" xmlns="http://www.w3.org/2000/svg" xmlns:xlink="http://www.w3.org/1999/xlink">
    <!-- Generator: sketchtool 41.2 (35397) - http://www.bohemiancoding.com/sketch -->
    <title>39857F25-0BE9-4CD3-A80A-78455163EF9B</title>
    <desc>Created with sketchtool.</desc>
    <defs></defs>
    <g id="Page-1" stroke="none" stroke-width="1" fill="none" fill-rule="evenodd" font-size="142.56" font-family="Ubuntu-Bold, Ubuntu" line-spacing="162" font-weight="bold">
        <g id="DIMEDIC/landing_page-Copy" transform="translate(-925.000000, -1309.000000)">
            <g id="Group-14" transform="translate(920.000000, 1283.000000)">
                <text id="24/7">
                    <tspan x="0" y="133" fill="#FFFFFF">24</tspan>
                    <tspan x="161.94816" y="133" fill="#00B5E2">/</tspan>
                    <tspan x="224.24688" y="133" fill="#FFFFFF">7</tspan>
                </text>
            </g>
        </g>
    </g>
</svg>