<?xml version="1.0" encoding="UTF-8"?>
<svg width="184px" height="184px" viewBox="0 0 184 184" version="1.1" xmlns="http://www.w3.org/2000/svg" xmlns:xlink="http://www.w3.org/1999/xlink">
    <!-- Generator: sketchtool 41.2 (35397) - http://www.bohemiancoding.com/sketch -->
    <title>8DCC99EC-9740-493B-BDCC-A166AF8BE8EB</title>
    <desc>Created with sketchtool.</desc>
    <defs>
        <circle id="path-1" cx="92" cy="92" r="92"></circle>
        <mask id="mask-2" maskContentUnits="userSpaceOnUse" maskUnits="objectBoundingBox" x="0" y="0" width="184" height="184" fill="white">
            <use xlink:href="#path-1"></use>
        </mask>
        <polyline id="path-3" points="0 0.383339104 83.5230645 0.383339104 83.5230645 97.4517483 0 97.4517483"></polyline>
        <polyline id="path-5" points="0 0.383339104 83.5230645 0.383339104 83.5230645 97.4517483 0 97.4517483"></polyline>
    </defs>
    <g id="Page-1" stroke="none" stroke-width="1" fill="none" fill-rule="evenodd">
        <g id="DIMEDIC/landing_page-Copy" transform="translate(-1044.000000, -1598.000000)">
            <g id="Group-49" transform="translate(1044.000000, 1598.000000)">
                <use id="Oval-3-Copy" stroke="#00B5E2" mask="url(#mask-2)" stroke-width="6" fill="#E0F0FB" opacity="0.224637681" xlink:href="#path-1"></use>
                <g id="Group-48" transform="translate(91.000000, 94.000000) scale(-1, 1) translate(-91.000000, -94.000000) translate(49.000000, 45.000000)">
                    <path d="M45.6727391,56.4469706 C42.7528198,60.5187608 36.8314969,60.5187608 34.0289183,56.5976925 L8.32849149,26.2248807 C4.3502218,20.5574875 6.87447013,12.7015615 13.482262,10.3286291 L19.0082169,8.3438045 L17.4310667,3.95285691 L11.9052498,5.93763197 C2.36738006,9.36278834 -1.27394929,20.8111596 4.58496312,29.0115772 L30.2920859,59.3923547 C34.9588521,65.8080067 44.6254647,65.8080067 49.2922308,59.3923547 L74.8817583,29.1626554 C80.8606336,20.8123609 77.2179705,9.36315959 67.678929,5.93758242 L62.15325,3.95285691 L60.5760998,8.3438045 L66.1019168,10.3285795 C72.7109596,12.7019612 75.2359864,20.5582708 71.2560305,26.2246382 L45.6727391,56.4469706 Z" id="Stroke-1" fill="#00B5E2"></path>
                    <mask id="mask-4" fill="white">
                        <use xlink:href="#path-3"></use>
                    </mask>
                    <g id="Clip-4"></g>
                    <path d="M24.0707316,6.1483307 C24.0707316,9.33257686 21.451085,11.9143981 18.2201876,11.9143981 C14.9892902,11.9143981 12.3696436,9.33257686 12.3696436,6.1483307 C12.3696436,2.96408455 14.9892902,0.382263345 18.2201876,0.382263345 C21.451085,0.382263345 24.0707316,2.96408455 24.0707316,6.1483307" id="Fill-3" fill="#00B5E2" mask="url(#mask-4)"></path>
                    <mask id="mask-6" fill="white">
                        <use xlink:href="#path-5"></use>
                    </mask>
                    <g id="Clip-7"></g>
                    <path d="M67.0321165,6.1483307 C67.0321165,9.33257686 64.41247,11.9143981 61.1815725,11.9143981 C57.9506751,11.9143981 55.3310286,9.33257686 55.3310286,6.1483307 C55.3310286,2.96408455 57.9506751,0.382263345 61.1815725,0.382263345 C64.41247,0.382263345 67.0321165,2.96408455 67.0321165,6.1483307" id="Fill-6" fill="#00B5E2" mask="url(#mask-6)"></path>
                    <path d="M37.4599041,78.4070517 C37.4599041,87.9936254 45.3302564,95.7493769 55.0221286,95.7493769 C64.7162441,95.7493769 72.5870818,87.9941069 72.5870818,78.4070517 L67.9214818,78.4070517 C67.9214818,85.4017929 62.1548259,91.0837769 55.0221286,91.0837769 C47.8918017,91.0837769 42.1255041,85.4014428 42.1255041,78.4070517 L37.4599041,78.4070517 Z" id="Stroke-9" fill="#00B5E2" mask="url(#mask-6)"></path>
                    <polygon id="Stroke-11" fill="#00B5E2" mask="url(#mask-6)" points="37.4599041 61.8712937 37.4599041 78.405707 42.1255041 78.405707 42.1255041 61.8712937"></polygon>
                    <path d="M79.4290481,70.5131334 C79.4290481,65.518923 75.3222064,61.4713804 70.2548275,61.4713804 C65.1874487,61.4713804 61.0778782,65.518923 61.0778782,70.5131334 C61.0778782,75.5073438 65.1874487,79.5548864 70.2548275,79.5548864 C75.3222064,79.5548864 79.4290481,75.5073438 79.4290481,70.5131334 L79.4290481,70.5131334 Z" id="Stroke-13" stroke="#00B5E2" stroke-width="4.6656" mask="url(#mask-6)"></path>
                    <path d="M73.7616065,70.5131334 C73.7616065,68.6036614 72.1898186,67.0545687 70.2523716,67.0545687 C68.3176535,67.0545687 66.7458656,68.6036614 66.7458656,70.5131334 C66.7458656,72.4226053 68.3176535,73.971698 70.2523716,73.971698 C72.1898186,73.971698 73.7616065,72.4226053 73.7616065,70.5131334" id="Fill-15" fill="#753BBD" mask="url(#mask-6)"></path>
                </g>
                <g id="Group-46" transform="translate(111.000000, 48.000000)" stroke-width="4">
                    <ellipse id="Oval" stroke="#00B5E2" fill="#753BBD" cx="20.687643" cy="20.687643" rx="20.687643" ry="20.687643"></ellipse>
                    <polyline id="Path-2" stroke="#FFFFFF" stroke-linecap="round" transform="translate(20.456688, 18.236488) rotate(-45.000000) translate(-20.456688, -18.236488) " points="11.2478054 13.9833954 11.2478054 22.4895809 29.6655706 22.4895809"></polyline>
                </g>
            </g>
        </g>
    </g>
</svg>