<?xml version="1.0" encoding="UTF-8"?>
<svg width="128px" height="114px" viewBox="0 0 128 114" version="1.1" xmlns="http://www.w3.org/2000/svg" xmlns:xlink="http://www.w3.org/1999/xlink">
    <!-- Generator: sketchtool 41.2 (35397) - http://www.bohemiancoding.com/sketch -->
    <title>C2469D57-29D8-4720-8B0E-A1C02318F9D3</title>
    <desc>Created with sketchtool.</desc>
    <defs>
        <path d="M5.914856,27.5145588 L0,30.4259337 L2.88419868,25.3023664 C1.63279321,23.9486738 0.897387419,22.2953987 0.897387419,20.5105763 C0.897387419,15.925463 5.75068783,12.2084942 11.7375373,12.2084942 C17.7243867,12.2084942 22.5776872,15.925463 22.5776872,20.5105763 C22.5776872,25.0956896 17.7243867,28.8126584 11.7375373,28.8126584 C9.59453493,28.8126584 7.59677348,28.3364056 5.914856,27.5145588 Z" id="path-1"></path>
        <mask id="mask-2" maskContentUnits="userSpaceOnUse" maskUnits="objectBoundingBox" x="0" y="0" width="22.5776872" height="18.2174395" fill="white">
            <use xlink:href="#path-1"></use>
        </mask>
        <path d="M20.4259111,22.0056447 L11.9220779,26.1913503 L16.0687121,18.8251589 C14.269557,16.8789449 13.2122586,14.5020188 13.2122586,11.9359661 C13.2122586,5.34391406 20.1898852,0 28.7972239,0 C37.4045626,0 44.3821892,5.34391406 44.3821892,11.9359661 C44.3821892,18.5280182 37.4045626,23.8719323 28.7972239,23.8719323 C25.7162132,23.8719323 22.8440165,23.18722 20.4259111,22.0056447 Z" id="path-3"></path>
        <mask id="mask-4" maskContentUnits="userSpaceOnUse" maskUnits="objectBoundingBox" x="0" y="0" width="32.4601113" height="26.1913503" fill="white">
            <use xlink:href="#path-3"></use>
        </mask>
    </defs>
    <g id="Page-1" stroke="none" stroke-width="1" fill="none" fill-rule="evenodd">
        <g id="DIMEDIC/landing_page-Copy" transform="translate(-717.000000, -588.000000)">
            <g id="Group-57" transform="translate(717.000000, 588.000000)">
                <path d="M73.8618785,31.7237569 C73.8618785,35.7827091 73.0607815,39.6813809 71.4585635,43.4198895 C69.8563456,47.1583981 67.7734935,50.7633344 65.2099448,54.2348066 C62.646396,57.7062789 59.762447,61.0441829 56.558011,64.2486188 C53.3535751,67.4530547 50.2025938,70.4972231 47.1049724,73.3812155 C45.5027544,74.8766189 43.7670443,76.5589225 41.8977901,78.4281768 C40.0285358,80.2974311 38.2394192,82.1933606 36.5303867,84.1160221 C34.8213543,86.0386836 33.29927,87.8278002 31.9640884,89.4834254 C30.6289068,91.1390506 29.8011066,92.5009155 29.480663,93.5690608 L77.2265193,93.5690608 L77.2265193,113.596685 L3.20441989,113.596685 C2.99079083,112.421725 2.8839779,110.926344 2.8839779,109.110497 L2.8839779,105.265193 C2.8839779,100.138096 3.71177809,95.4383271 5.36740331,91.1657459 C7.02302854,86.8931646 9.18599033,82.9143831 11.8563536,79.2292818 C14.5267169,75.5441805 17.5441821,72.0994635 20.9088398,68.8950276 C24.2734975,65.6905917 27.6114015,62.4862039 30.9226519,59.281768 C33.4862007,56.8250338 35.8894915,54.5018526 38.1325967,52.3121547 C40.3757018,50.1224568 42.351741,47.9861983 44.0607735,45.9033149 C45.769806,43.8204316 47.1049676,41.7375795 48.0662983,39.6546961 C49.0276291,37.5718128 49.5082873,35.4622575 49.5082873,33.3259669 C49.5082873,28.6261275 48.1731257,25.3149267 45.5027624,23.3922652 C42.8323992,21.4696036 39.5211984,20.5082873 35.5690608,20.5082873 C32.6850685,20.5082873 29.988042,20.9622422 27.4779006,21.8701657 C24.9677591,22.7780893 22.6712811,23.8462185 20.5883978,25.0745856 C18.5055144,26.3029527 16.7163979,27.5313014 15.2209945,28.7596685 C13.725591,29.9880356 12.6040553,30.9760552 11.8563536,31.7237569 L0,15.0607735 C4.69983934,10.6813777 10.1740019,7.07644141 16.4226519,4.24585635 C22.671302,1.4152713 29.3738132,0 36.5303867,0 C43.0460731,0 48.6537518,0.747690497 53.3535912,2.24309392 C58.0534305,3.73849735 61.9253991,5.84805268 64.9696133,8.5718232 C68.0138274,11.2955937 70.2568989,14.6067945 71.698895,18.5055249 C73.1408912,22.4042552 73.8618785,26.8102885 73.8618785,31.7237569 Z" id="2" fill="#3E1A68"></path>
                <g id="Group-11" transform="translate(30.000000, 25.000000)">
                    <g id="Group-7" stroke="#FFFFFF">
                        <g id="Group-6">
                            <path d="M88.8720132,46.3606338 L88.8720132,4.18243504 C88.8720132,1.87331461 87.0174939,0 84.7286639,0 L12.8496093,0 C10.5607793,0 8.70626003,1.87331461 8.70626003,4.18243504 L8.70626003,46.3606338" id="Stroke-3" stroke-width="3"></path>
                            <path d="M84.8031254,45.8720383 L84.8031254,5.29005969 C84.8031254,4.78920822 84.4010336,4.38202247 83.9048627,4.38202247 L13.9576527,4.38202247 C13.4614818,4.38202247 13.05939,4.78920822 13.05939,5.29005969 L13.05939,45.8720383" id="Stroke-7"></path>
                            <path d="M56.1356163,51.488764 L56.1356163,52.5893364 C56.1356163,53.9266749 55.0620829,55.0103353 53.7372421,55.0103353 L42.6887404,55.0103353 C41.3651884,55.0103353 40.2903662,53.9266749 40.2903662,52.5893364 L40.2903662,51.488764 L0,51.488764 C0,56.1733515 3.76187759,59.9720172 8.40268649,59.9720172 L88.023296,59.9720172 C92.6641049,59.9720172 96.4272713,56.1733515 96.4272713,51.488764 L56.1356163,51.488764 Z" id="Stroke-11" stroke-width="3"></path>
                        </g>
                    </g>
                    <g id="Group-10" transform="translate(26.000000, 10.000000)" stroke-width="6">
                        <use id="Combined-Shape" stroke="#FFFFFF" mask="url(#mask-2)" xlink:href="#path-1"></use>
                        <use id="Combined-Shape-Copy-2" stroke="#27B5ED" mask="url(#mask-4)" fill="#552983" transform="translate(28.152134, 13.095675) scale(-1, 1) translate(-28.152134, -13.095675) " xlink:href="#path-3"></use>
                    </g>
                </g>
            </g>
        </g>
    </g>
</svg>