<?xml version="1.0" encoding="UTF-8"?>
<svg width="120px" height="112px" viewBox="0 0 120 112" version="1.1" xmlns="http://www.w3.org/2000/svg" xmlns:xlink="http://www.w3.org/1999/xlink">
    <!-- Generator: sketchtool 41.2 (35397) - http://www.bohemiancoding.com/sketch -->
    <title>7A3ACA8F-2610-4F21-B8DC-9A9CC0C1865D</title>
    <desc>Created with sketchtool.</desc>
    <defs></defs>
    <g id="Page-1" stroke="none" stroke-width="1" fill="none" fill-rule="evenodd">
        <g id="DIMEDIC/landing_page-Copy" transform="translate(-401.000000, -590.000000)">
            <g id="Group-56" transform="translate(401.000000, 590.000000)">
                <path d="M0,23.0718232 C3.09762138,21.7900488 6.32871246,20.3213711 9.69337017,18.6657459 C13.0580279,17.0101206 16.3425254,15.1943009 19.5469613,13.218232 C22.7513972,11.2421632 25.8222689,9.15931113 28.7596685,6.96961326 C31.6970681,4.77991539 34.3406881,2.4567342 36.6906077,0 L53.3535912,0 L53.3535912,111.033149 L29.480663,111.033149 L29.480663,31.0828729 C26.2762271,33.2191635 22.697994,35.1684995 18.7458564,36.9309392 C14.7937187,38.693379 10.9484533,40.2154632 7.20994475,41.4972376 L0,23.0718232 Z" id="1" fill="#3E1A68"></path>
                <g id="Group-54" transform="translate(36.000000, 6.000000)">
                    <g id="Group-9">
                        <path d="M71.8256823,59.986636 L9.38713879,59.986636 C6.02959531,59.986636 3.30755184,57.2645925 3.30755184,53.907049 L3.30755184,26.7989186 C3.30755184,23.4413751 6.02959531,20.7193316 9.38713879,20.7193316 L71.8256823,20.7193316 C75.1832257,20.7193316 77.9052692,23.4413751 77.9052692,26.7989186 L77.9052692,53.907049 C77.9052692,57.2645925 75.1832257,59.986636 71.8256823,59.986636" id="Fill-1" transform="translate(40.606411, 40.352984) rotate(-45.000000) translate(-40.606411, -40.352984) "></path>
                        <path d="M71.8256823,59.986636 L9.38713879,59.986636 C6.02959531,59.986636 3.30755184,57.2645925 3.30755184,53.907049 L3.30755184,26.7989186 C3.30755184,23.4413751 6.02959531,20.7193316 9.38713879,20.7193316 L71.8256823,20.7193316 C75.1832257,20.7193316 77.9052692,23.4413751 77.9052692,26.7989186 L77.9052692,53.907049 C77.9052692,57.2645925 75.1832257,59.986636 71.8256823,59.986636 Z" id="Stroke-3" stroke="#27B5ED" stroke-width="3" transform="translate(40.606411, 40.352984) rotate(-45.000000) translate(-40.606411, -40.352984) "></path>
                        <path d="M14.2608696,40.477886 L67.7391304,40.477886" id="Stroke-5" stroke="#27B5ED" stroke-width="3" transform="translate(41.000000, 41.814843) rotate(-45.000000) translate(-41.000000, -41.814843) "></path>
                        <path d="M18.7126544,52.843856 C18.7126544,55.3145516 16.7098935,57.3173125 14.2391979,57.3173125 C11.7676109,57.3173125 9.76485004,55.3145516 9.76485004,52.843856 C9.76485004,50.3731603 11.7676109,48.3703995 14.2391979,48.3703995 C16.7098935,48.3703995 18.7126544,50.3731603 18.7126544,52.843856 Z" id="Stroke-7" stroke="#FFFFFF" stroke-width="3" transform="translate(14.238752, 52.843856) rotate(-45.000000) translate(-14.238752, -52.843856) "></path>
                        <path d="M31.3176014,40.238909 C31.3176014,42.7096047 29.3148405,44.7123655 26.8441448,44.7123655 C24.3725579,44.7123655 22.369797,42.7096047 22.369797,40.238909 C22.369797,37.7682134 24.3725579,35.7654525 26.8441448,35.7654525 C29.3148405,35.7654525 31.3176014,37.7682134 31.3176014,40.238909 Z" id="Stroke-9" stroke="#FFFFFF" stroke-width="3" transform="translate(26.843699, 40.238909) rotate(-45.000000) translate(-26.843699, -40.238909) "></path>
                        <path d="M43.9225483,27.6339621 C43.9225483,30.1046577 41.9197875,32.1074186 39.4490918,32.1074186 C36.9775048,32.1074186 34.974744,30.1046577 34.974744,27.6339621 C34.974744,25.1632664 36.9775048,23.1605055 39.4490918,23.1605055 C41.9197875,23.1605055 43.9225483,25.1632664 43.9225483,27.6339621 Z" id="Stroke-11" stroke="#FFFFFF" stroke-width="3" transform="translate(39.448646, 27.633962) rotate(-45.000000) translate(-39.448646, -27.633962) "></path>
                        <path d="M56.5274953,15.0290151 C56.5274953,17.4997107 54.5247344,19.5024716 52.0540388,19.5024716 C49.5824518,19.5024716 47.5796909,17.4997107 47.5796909,15.0290151 C47.5796909,12.5583194 49.5824518,10.5555586 52.0540388,10.5555586 C54.5247344,10.5555586 56.5274953,12.5583194 56.5274953,15.0290151 Z" id="Stroke-13" stroke="#FFFFFF" stroke-width="3" transform="translate(52.053593, 15.029015) rotate(-45.000000) translate(-52.053593, -15.029015) "></path>
                        <path d="M33.2083434,67.339545 C33.2083434,69.8102407 31.2055825,71.8130015 28.7348869,71.8130015 C26.2632999,71.8130015 24.2605391,69.8102407 24.2605391,67.339545 C24.2605391,64.8688494 26.2632999,62.8660885 28.7348869,62.8660885 C31.2055825,62.8660885 33.2083434,64.8688494 33.2083434,67.339545 Z" id="Stroke-15" stroke="#FFFFFF" stroke-width="3" transform="translate(28.734441, 67.339545) rotate(-45.000000) translate(-28.734441, -67.339545) "></path>
                        <path d="M45.8132904,54.734598 C45.8132904,57.2052937 43.8105295,59.2080546 41.3398338,59.2080546 C38.8682469,59.2080546 36.865486,57.2052937 36.865486,54.734598 C36.865486,52.2639024 38.8682469,50.2611415 41.3398338,50.2611415 C43.8105295,50.2611415 45.8132904,52.2639024 45.8132904,54.734598 Z" id="Stroke-17" stroke="#FFFFFF" stroke-width="3" transform="translate(41.339388, 54.734598) rotate(-45.000000) translate(-41.339388, -54.734598) "></path>
                        <path d="M58.4182373,42.1296511 C58.4182373,44.6003467 56.4154765,46.6031076 53.9447808,46.6031076 C51.4731939,46.6031076 49.470433,44.6003467 49.470433,42.1296511 C49.470433,39.6589554 51.4731939,37.6561946 53.9447808,37.6561946 C56.4154765,37.6561946 58.4182373,39.6589554 58.4182373,42.1296511 Z" id="Stroke-19" stroke="#FFFFFF" stroke-width="3" transform="translate(53.944335, 42.129651) rotate(-45.000000) translate(-53.944335, -42.129651) "></path>
                        <path d="M71.0231843,29.5247041 C71.0231843,31.9953998 69.0204234,33.9981606 66.5497278,33.9981606 C64.0781408,33.9981606 62.07538,31.9953998 62.07538,29.5247041 C62.07538,27.0540085 64.0781408,25.0512476 66.5497278,25.0512476 C69.0204234,25.0512476 71.0231843,27.0540085 71.0231843,29.5247041 Z" id="Stroke-21" stroke="#FFFFFF" stroke-width="3" transform="translate(66.549282, 29.524704) rotate(-45.000000) translate(-66.549282, -29.524704) "></path>
                    </g>
                    <g id="Group-4" transform="translate(45.000000, 42.000000)">
                        <ellipse id="Oval" stroke="#FFFFFF" stroke-width="3" fill="#522880" cx="18.7173913" cy="18.7173913" rx="18.7173913" ry="18.7173913"></ellipse>
                        <polyline id="Path-2" stroke="#27B5ED" stroke-width="4" stroke-linecap="round" transform="translate(18.508432, 16.499680) rotate(-45.000000) translate(-18.508432, -16.499680) " points="10.1765859 12.6516435 10.1765859 20.3477161 26.8402781 20.3477161"></polyline>
                    </g>
                </g>
            </g>
        </g>
    </g>
</svg>